Homeworks 11
…
## # A tibble: 6 x 7
##   cycle  time  temp  conc   abs file                  temp_group
##   <dbl> <dbl> <dbl> <dbl> <dbl> <chr>                 <chr>     
## 1     1     0  18.5   0   0.117 adh-f_march_17_01.csv 18.5      
## 2     1     0  18.5   0   0.115 adh-f_march_17_01.csv 18.5      
## 3     1     0  18.5   0   0.128 adh-f_march_17_01.csv 18.5      
## 4     1     0  18.5   1.5 0.299 adh-f_march_17_01.csv 18.5      
## 5     1     0  18.5   1.5 0.287 adh-f_march_17_01.csv 18.5      
## 6     1     0  18.5   1.5 0.314 adh-f_march_17_01.csv 18.5

data_velo_f <- calc_velocity(data_f)
data_velo_f

## # A tibble: 55 x 3
## # Groups:   conc, temp_group [55]
##    temp_group  conc velocity
##    <chr>      <dbl>    <dbl>
##  1 18.5         1.5 0.000245
##  2 18.5         3   0.000157
##  3 18.5         6   0.000262
##  4 18.5        12.5 0.000425
##  5 18.5        25   0.000557
##  6 18.5        50   0.000765
##  7 18.5       100   0.000965
##  8 18.5       200   0.00117 
##  9 18.5       400   0.00133 
## 10 18.5       800   0.00148 
## # … with 45 more rows
…
